…
We calculated a new violation rate for each distinct program using
violation category column.

``` r
childcare_inspection_df %>% 
  relocate(center_name, program_type) %>% 
  group_by(center_name, program_type) %>% 
  mutate(
    n_na = sum(is.na(violation_category)), 
    n_violation = sum(!is.na(violation_category)), 
    rate = n_violation/(n_violation+n_na)) %>% 
  arrange(center_name, program_type)
```

    ## # A tibble: 19,472 × 25
    ## # Groups:   center_name, program_type [1,917]
    ##    center_name    progr…¹ borough zip_c…² status age_r…³ maxim…⁴ facil…⁵ child…⁶
    ##    <chr>          <fct>   <fct>     <dbl> <fct>  <chr>     <dbl> <fct>   <fct>  
    ##  1 'THE STUDIO S… presch… MANHAT…   10025 Permi… 2 YEAR…      51 gdc     Child …
    ##  2 'THE STUDIO S… presch… MANHAT…   10025 Permi… 2 YEAR…      51 gdc     Child …
    ##  3 'THE STUDIO S… presch… MANHAT…   10025 Permi… 2 YEAR…      51 gdc     Child …
    ##  4 'THE STUDIO S… presch… MANHAT…   10025 Permi… 2 YEAR…      51 gdc     Child …
    ##  5 'THE STUDIO S… presch… MANHAT…   10025 Permi… 2 YEAR…      51 gdc     Child …
    ##  6 'THE STUDIO S… presch… MANHAT…   10025 Permi… 2 YEAR…      51 gdc     Child …
    ##  7 'THE STUDIO S… presch… MANHAT…   10025 Permi… 2 YEAR…      51 gdc     Child …
    ##  8 1332 FULTON  … presch… BRONX     10456 Expir… 2 YEAR…     148 gdc     Child …
    ##  9 1332 FULTON  … presch… BRONX     10456 Expir… 2 YEAR…     148 gdc     Child …
    ## 10 1332 FULTON  … presch… BRONX     10456 Expir… 2 YEAR…     148 gdc     Child …
    ## # … with 19,462 more rows, 16 more variables: violation_category <chr>,
    ## #   violation_status <chr>, violation_rate_percent <dbl>,
    ## #   average_violation_rate_percent <dbl>, total_educational_workers <dbl>,
    ## #   average_total_educational_workers <dbl>,
    ## #   public_health_hazard_violation_rate <dbl>,
    ## #   average_public_health_hazard_violation_rate <dbl>,
    ## #   critical_violation_rate <dbl>, average_critical_violation_rate <dbl>, …
